{
  "__type__": "cc.Material",
  "_name": "",
  "_objFlags": 0,
  "_native": "",
  "_effectAsset": {
    "__uuid__": "1baf0fc9-befa-459c-8bdd-af1a450a0319",
    "__expectedType__": "cc.EffectAsset"
  },
  "_techIdx": "1",
  "_defines": [
    {
      "USE_ALBEDO_MAP": true
    },
    {},
    {}
  ],
  "_states": [
    {
      "rasterizerState": {},
      "depthStencilState": {},
      "blendState": {
        "targets": [
          {}
        ]
      }
    },
    {},
    {}
  ],
  "_props": [
    {
      "roughness": 0.367,
      "metallic": 0.728,
      "mainTexture": {
        "__uuid__": "a9ec1aa2-7de4-4417-bc3e-ab6083fd9ba7@6c48a",
        "__expectedType__": "cc.Texture2D"
      }
    },
    {},
    {}
  ]
}