{
  "__type__": "cc.Material",
  "_name": "",
  "_objFlags": 0,
  "_native": "",
  "_effectAsset": {
    "__uuid__": "1baf0fc9-befa-459c-8bdd-af1a450a0319",
    "__expectedType__": "cc.EffectAsset"
  },
  "_techIdx": 0,
  "_defines": [
    {},
    {},
    {}
  ],
  "_states": [
    {
      "rasterizerState": {},
      "depthStencilState": {},
      "blendState": {
        "targets": [
          {}
        ]
      }
    },
    {},
    {}
  ],
  "_props": [
    {
      "mainColor": {
        "__type__": "cc.Color",
        "r": 36,
        "g": 36,
        "b": 36,
        "a": 255
      },
      "roughness": 0.809,
      "metallic": 0.137,
      "mainTexture": {
        "__uuid__": "6f78bacd-91ab-4712-8e49-90501e80566b@6c48a",
        "__expectedType__": "cc.Texture2D"
      }
    },
    {},
    {}
  ]
}