{
  "__type__": "cc.Material",
  "_name": "",
  "_objFlags": 0,
  "_native": "",
  "_effectAsset": {
    "__uuid__": "1baf0fc9-befa-459c-8bdd-af1a450a0319",
    "__expectedType__": "cc.EffectAsset"
  },
  "_techIdx": 0,
  "_defines": [
    {
      "USE_ALBEDO_MAP": true
    },
    {},
    {}
  ],
  "_states": [
    {
      "rasterizerState": {},
      "depthStencilState": {},
      "blendState": {
        "targets": [
          {}
        ]
      }
    },
    {},
    {}
  ],
  "_props": [
    {
      "roughness": 0.7,
      "metallic": 0,
      "mainTexture": {
        "__uuid__": "14dc5e60-0dcb-4521-a6bc-ae1ca7778672@6c48a",
        "__expectedType__": "cc.Texture2D"
      }
    },
    {},
    {}
  ]
}